{
  "name" : "Rename Great Britain to United Kingdom",
  "id" : "",
  "version" : "1.0.1",
  "supported_game_version" : "1.1.*",
  "short_description" : "Renames Great Britain to United Kingdom",
  "tags" : [],
  "relationships" : [],
  "game_custom_data" : {
    "multiplayer_synchronized" : true
  }
}